{
    "version": "https://jsonfeed.org/version/1",
    "title": "Johannes Hove-Henriksen",
	"description": "This is a test",
    "home_page_url": "https://t9.no/",
    "feed_url": "https://t9.no/index.json",
	"author": {
		"name": "<no value>",
		"url": "<no value>"
    },
    "items": [
        
        {
            "id": "https://t9.no/nrkfzf/",
            "url": "https://t9.no/nrkfzf/",
            "title": "nrkfzf",
            "content_html": "\u003ch1 id=\"ytfzf-for-nrk\"\u003eytfzf for nrk.\u003c/h1\u003e\n\u003cp\u003eI have been working on a script similar to ytfz the only difference is that it is meant for nrk. nrk which is the state channel in norway.\u003c/p\u003e\n\u003cp\u003ei have been working on a script that is uses the nrk search \u003ca href=\"https://psapi.nrk.no/search?q=norge\"\u003eapi\u003c/a\u003e to search for somthing than pipe it to mpv and show it to the user.\u003c/p\u003e\n\u003cp\u003emake a \u003ca href=\"https://github.com/pystardust/ytfzf\"\u003eytfzf\u003c/a\u003e like\u003c/p\u003e\n",
            "summary": "ytfzf for nrk. I have been working on a script similar to ytfz the only difference is that it is meant for nrk. nrk which is the state channel in norway.\ni have been working on a script that is uses the nrk search api to search for somthing than pipe it to mpv and show it to the user.\nmake a ytfzf like",
            "date_published": "2013-06-13T12:00:00+00:00",
            "date_modified": "2013-06-13T12:00:00+00:00",
            "tags": ["github","ytfzf","update","nrk"]
        }
        
    ]
}
